module oauth

go 1.16

require (
	github.com/dgrijalva/jwt-go v3.2.0+incompatible // indirect
	github.com/gorilla/mux v1.8.0 // indirect
	github.com/jinzhu/gorm v1.9.16 // indirect
	github.com/rubenv/sql-migrate v0.0.0-20210215143335-f84234893558 // indirect
	golang.org/x/crypto v0.0.0-20210317152858-513c2a44f670 // indirect
)
